0 info it worked if it ends with ok
1 verbose cli [ '/home/action/.parts/bin/node',
1 verbose cli   '/home/action/.parts/bin/npm',
1 verbose cli   'install',
1 verbose cli   '--save',
1 verbose cli   'cryptocoin-convert-hex' ]
2 info using npm@1.4.3
3 info using node@v0.10.26
4 verbose node symlink /home/action/.parts/bin/node
5 warn package.json treasure@0.0.0 No description
6 warn package.json treasure@0.0.0 No repository field.
7 warn package.json treasure@0.0.0 No README data
8 verbose readDependencies using package.json deps
9 verbose cache add [ 'cryptocoin-convert-hex', null ]
10 verbose cache add name=undefined spec="cryptocoin-convert-hex" args=["cryptocoin-convert-hex",null]
11 verbose parsed url { protocol: null,
11 verbose parsed url   slashes: null,
11 verbose parsed url   auth: null,
11 verbose parsed url   host: null,
11 verbose parsed url   port: null,
11 verbose parsed url   hostname: null,
11 verbose parsed url   hash: null,
11 verbose parsed url   search: null,
11 verbose parsed url   query: null,
11 verbose parsed url   pathname: 'cryptocoin-convert-hex',
11 verbose parsed url   path: 'cryptocoin-convert-hex',
11 verbose parsed url   href: 'cryptocoin-convert-hex' }
12 silly lockFile 3f6a4db8-cryptocoin-convert-hex cryptocoin-convert-hex
13 verbose lock cryptocoin-convert-hex /home/action/.npm/3f6a4db8-cryptocoin-convert-hex.lock
14 silly lockFile 3f6a4db8-cryptocoin-convert-hex cryptocoin-convert-hex
15 silly lockFile 3f6a4db8-cryptocoin-convert-hex cryptocoin-convert-hex
16 verbose addNamed [ 'cryptocoin-convert-hex', '' ]
17 verbose addNamed [ null, '*' ]
18 silly lockFile d7d2cccf-cryptocoin-convert-hex cryptocoin-convert-hex@
19 verbose lock cryptocoin-convert-hex@ /home/action/.npm/d7d2cccf-cryptocoin-convert-hex.lock
20 silly addNameRange { name: 'cryptocoin-convert-hex', range: '*', hasData: false }
21 verbose url raw cryptocoin-convert-hex
22 verbose url resolving [ 'https://registry.npmjs.org/', './cryptocoin-convert-hex' ]
23 verbose url resolved https://registry.npmjs.org/cryptocoin-convert-hex
24 info trying registry request attempt 1 at 22:29:59
25 http GET https://registry.npmjs.org/cryptocoin-convert-hex
26 http 404 https://registry.npmjs.org/cryptocoin-convert-hex
27 silly registry.get cb [ 404,
27 silly registry.get   { date: 'Fri, 08 Aug 2014 22:29:59 GMT',
27 silly registry.get     server: 'CouchDB/1.5.0 (Erlang OTP/R16B03)',
27 silly registry.get     'content-type': 'application/json',
27 silly registry.get     'cache-control': 'max-age=0',
27 silly registry.get     'content-length': '52',
27 silly registry.get     'accept-ranges': 'bytes',
27 silly registry.get     via: '1.1 varnish',
27 silly registry.get     age: '0',
27 silly registry.get     'x-served-by': 'cache-at50-ATL',
27 silly registry.get     'x-cache': 'MISS',
27 silly registry.get     'x-cache-hits': '0',
27 silly registry.get     'x-timer': 'S1407536999.910927,VS0,VE25',
27 silly registry.get     'keep-alive': 'timeout=10, max=50',
27 silly registry.get     connection: 'Keep-Alive' } ]
28 silly lockFile d7d2cccf-cryptocoin-convert-hex cryptocoin-convert-hex@
29 silly lockFile d7d2cccf-cryptocoin-convert-hex cryptocoin-convert-hex@
30 error 404 'cryptocoin-convert-hex' is not in the npm registry.
30 error 404 You should bug the author to publish it
30 error 404 It was specified as a dependency of 'treasure'
30 error 404
30 error 404 Note that you can also install from a
30 error 404 tarball, folder, or http url, or git url.
31 error System Linux 3.13.4
32 error command "/home/action/.parts/bin/node" "/home/action/.parts/bin/npm" "install" "--save" "cryptocoin-convert-hex"
33 error cwd /home/action/workspace/treasure
34 error node -v v0.10.26
35 error npm -v 1.4.3
36 error code E404
37 verbose exit [ 1, true ]
